<?xml version="1.0" encoding="UTF-8" standalone="no"?>
<!-- Generator: Adobe Illustrator 23.0.0, SVG Export Plug-In . SVG Version: 6.00 Build 0)  -->

<svg
   version="1.1"
   id="ZDIN"
   x="0px"
   y="0px"
   viewBox="0 0 235.63261 48.104083"
   xml:space="preserve"
   sodipodi:docname="ZDIN_Zukunftslabore_Logo_Icons_ENE_pos_rgb.svg"
   width="235.63261"
   height="48.104084"
   inkscape:version="1.1.2 (0a00cf5339, 2022-02-04, custom)"
   xmlns:inkscape="http://www.inkscape.org/namespaces/inkscape"
   xmlns:sodipodi="http://sodipodi.sourceforge.net/DTD/sodipodi-0.dtd"
   xmlns="http://www.w3.org/2000/svg"
   xmlns:svg="http://www.w3.org/2000/svg"
   xmlns:ns="&amp;ns_sfw;"><defs
   id="defs59" /><sodipodi:namedview
   id="namedview57"
   pagecolor="#ffffff"
   bordercolor="#666666"
   borderopacity="1.0"
   inkscape:pageshadow="2"
   inkscape:pageopacity="0.0"
   inkscape:pagecheckerboard="0"
   showgrid="false"
   fit-margin-top="0"
   fit-margin-left="0"
   fit-margin-right="0"
   fit-margin-bottom="0"
   inkscape:zoom="2.5361552"
   inkscape:cx="-35.289638"
   inkscape:cy="-6.3087622"
   inkscape:window-width="1920"
   inkscape:window-height="1137"
   inkscape:window-x="-8"
   inkscape:window-y="-8"
   inkscape:window-maximized="1"
   inkscape:current-layer="g54" />
<style
   type="text/css"
   id="style2">
	.st0{fill:#97D700;}
</style>
<metadata
   id="metadata4">
	<ns:sfw>
		<ns:slices />
		<ns:sliceSourceBounds
   bottomLeftOrigin="true"
   height="209.9"
   width="196.5"
   x="888.8"
   y="-790.6" />
	</ns:sfw>
</metadata>
<g
   id="g54"
   transform="translate(-50.510779,-196.91873)">
	<g
   id="g20"
   transform="translate(17.743394,-1.5771905)">
		<path
   class="st0"
   d="m 72.1,228.6 h 10.1 c 0.1,0.5 0.1,1 0.1,1.5 0,0.5 0,1.1 -0.1,1.6 h -6.5 v 3.9 h 5.1 c 0.1,0.5 0.1,1 0.1,1.5 0,0.5 0,1 -0.1,1.6 h -5.1 v 4.7 h 6.7 c 0.1,0.5 0.1,1 0.1,1.5 0,0.5 0,1.1 -0.1,1.6 H 72.1 Z"
   id="path6" />
		<path
   class="st0"
   d="m 85.7,228.6 c 0.5,-0.1 1,-0.1 1.5,-0.1 0.5,0 1,0 1.5,0.1 l 6.9,11.3 v -11.3 c 0.6,-0.1 1.2,-0.1 1.7,-0.1 0.5,0 1,0 1.5,0.1 v 17.8 c -0.5,0.1 -1,0.1 -1.4,0.1 -0.5,0 -1,-0.1 -1.5,-0.1 L 89,235.1 v 11.3 c -0.5,0.1 -1.1,0.1 -1.6,0.1 -0.5,0 -1.1,-0.1 -1.6,-0.1 v -17.8 z"
   id="path8" />
		<path
   class="st0"
   d="m 102.7,228.6 h 10.1 c 0.1,0.5 0.1,1 0.1,1.5 0,0.5 0,1.1 -0.1,1.6 h -6.5 v 3.9 h 5.1 c 0.1,0.5 0.1,1 0.1,1.5 0,0.5 0,1 -0.1,1.6 h -5.1 v 4.7 h 6.7 c 0.1,0.5 0.1,1 0.1,1.5 0,0.5 0,1.1 -0.1,1.6 h -10.3 z"
   id="path10" />
		<path
   class="st0"
   d="m 116.2,228.6 c 0.7,-0.1 1.4,-0.2 2,-0.2 0.6,0 1.3,-0.1 2.1,-0.1 0.9,0 1.8,0.1 2.7,0.2 0.9,0.2 1.7,0.5 2.4,0.9 0.7,0.4 1.3,1 1.7,1.7 0.4,0.7 0.7,1.6 0.7,2.7 0,0.7 -0.1,1.2 -0.2,1.7 -0.2,0.5 -0.4,0.9 -0.6,1.3 -0.3,0.4 -0.5,0.7 -0.8,1 -0.3,0.3 -0.6,0.5 -0.8,0.7 l -0.4,0.3 4.3,7.5 c -0.3,0 -0.7,0.1 -1,0.1 -0.4,0 -0.7,0 -1.1,0 -0.6,0 -1.2,0 -1.9,-0.1 l -4.7,-8.3 0.6,-0.3 c 0.2,-0.1 0.5,-0.3 0.8,-0.4 0.3,-0.1 0.6,-0.4 1,-0.7 0.3,-0.3 0.6,-0.6 0.8,-1 0.2,-0.4 0.3,-0.8 0.3,-1.4 0,-1 -0.3,-1.8 -0.9,-2.3 -0.6,-0.5 -1.4,-0.7 -2.3,-0.7 -0.4,0 -0.7,0 -1,0.1 v 15 c -0.3,0 -0.6,0.1 -0.9,0.1 -0.3,0 -0.6,0 -0.9,0 -0.3,0 -0.6,0 -0.9,0 -0.3,0 -0.6,0 -1,-0.1 z"
   id="path12" />
		<path
   class="st0"
   d="m 140.7,237.1 c 0.6,-0.1 1.2,-0.1 1.8,-0.1 0.6,0 1.2,0.1 1.8,0.1 v 8.7 c -0.9,0.3 -1.8,0.5 -2.7,0.6 -0.9,0.1 -1.7,0.2 -2.4,0.2 -1.5,0 -2.7,-0.2 -3.8,-0.7 -1.1,-0.5 -2,-1.1 -2.7,-1.9 -0.7,-0.8 -1.3,-1.8 -1.6,-2.9 -0.4,-1.1 -0.5,-2.3 -0.5,-3.7 0,-1.3 0.2,-2.5 0.6,-3.7 0.4,-1.1 0.9,-2.1 1.6,-2.9 0.7,-0.8 1.6,-1.5 2.6,-1.9 1,-0.5 2.2,-0.7 3.6,-0.7 0.8,0 1.5,0 2.2,0.1 0.7,0.1 1.4,0.3 2.1,0.6 0,0.5 -0.1,1 -0.3,1.4 -0.2,0.5 -0.3,0.9 -0.5,1.4 -0.6,-0.2 -1.1,-0.3 -1.5,-0.4 -0.4,-0.1 -1,-0.1 -1.6,-0.1 -1.6,0 -2.8,0.5 -3.6,1.5 -0.8,1 -1.3,2.6 -1.3,4.6 0,2 0.4,3.5 1.3,4.5 0.9,1 2.1,1.5 3.7,1.5 0.3,0 0.5,0 0.8,0 0.3,0 0.4,-0.1 0.6,-0.1 v -6.1 z"
   id="path14" />
		<path
   class="st0"
   d="m 147.9,228.6 c 0.6,-0.1 1.2,-0.1 1.8,-0.1 0.6,0 1.2,0 1.8,0.1 v 17.8 c -0.6,0.1 -1.2,0.1 -1.8,0.1 -0.6,0 -1.2,-0.1 -1.8,-0.1 z"
   id="path16" />
		<path
   class="st0"
   d="m 155.5,228.6 h 10.1 c 0.1,0.5 0.1,1 0.1,1.5 0,0.5 0,1.1 -0.1,1.6 h -6.5 v 3.9 h 5.1 c 0.1,0.5 0.1,1 0.1,1.5 0,0.5 0,1 -0.1,1.6 h -5.1 v 4.7 h 6.7 c 0.1,0.5 0.1,1 0.1,1.5 0,0.5 0,1.1 -0.1,1.6 h -10.3 z"
   id="path18" />
	</g>
	<g
   id="g48"
   transform="translate(17.743394,-1.5771905)">
		<path
   class="st0"
   d="m 71.9,221.4 7.5,-14.5 h -6.8 c -0.1,-0.5 -0.1,-1 -0.1,-1.5 0,-0.5 0,-1.1 0.1,-1.6 h 11.9 l 0.2,0.3 -7.4,14.4 h 7 c 0.1,0.5 0.1,1 0.1,1.5 0,0.5 0,1.1 -0.1,1.6 H 72 Z"
   id="path22" />
		<path
   class="st0"
   d="m 87.2,203.8 c 0.3,0 0.6,-0.1 0.9,-0.1 0.3,0 0.6,0 0.9,0 0.3,0 0.6,0 0.9,0 0.3,0 0.6,0 0.9,0.1 v 9.2 c 0,1 0,1.9 0.1,2.6 0.1,0.7 0.2,1.3 0.4,1.8 0.2,0.5 0.5,0.8 0.9,1 0.4,0.2 0.9,0.3 1.6,0.3 0.6,0 1.2,-0.1 1.6,-0.3 0.4,-0.2 0.7,-0.6 0.9,-1 0.2,-0.4 0.4,-1.1 0.4,-1.8 0.1,-0.7 0.1,-1.6 0.1,-2.6 v -9.2 c 0.3,0 0.6,-0.1 0.9,-0.1 0.3,0 0.6,0 0.9,0 0.3,0 0.6,0 0.9,0 0.3,0 0.6,0 0.9,0.1 v 10 c 0,1.2 -0.1,2.3 -0.3,3.3 -0.2,1 -0.6,1.9 -1.1,2.6 -0.5,0.7 -1.2,1.3 -2.1,1.6 -0.9,0.4 -1.9,0.6 -3.3,0.6 -1.3,0 -2.4,-0.2 -3.3,-0.6 -0.9,-0.4 -1.5,-0.9 -2.1,-1.6 -0.5,-0.7 -0.9,-1.6 -1.1,-2.6 -0.2,-1 -0.3,-2.1 -0.3,-3.3 v -10 z"
   id="path24" />
		<path
   class="st0"
   d="m 104.2,203.8 c 0.3,0 0.6,-0.1 0.9,-0.1 0.3,0 0.6,0 0.9,0 0.3,0 0.6,0 0.9,0 0.3,0 0.6,0 0.9,0.1 v 17.8 c -0.3,0 -0.6,0.1 -0.9,0.1 -0.3,0 -0.6,0 -0.9,0 -0.3,0 -0.6,0 -0.9,0 -0.3,0 -0.6,0 -0.9,-0.1 z m 4.1,8.9 4.8,-8.8 c 0.4,-0.1 0.7,-0.1 1.1,-0.1 0.4,0 0.6,0 0.9,0 0.3,0 0.6,0 0.9,0 0.3,0 0.7,0.1 1.1,0.1 l -4.9,8.6 5.3,9.2 c -0.4,0 -0.7,0.1 -1.1,0.1 -0.4,0 -0.7,0 -1,0 -0.3,0 -0.6,0 -0.9,0 -0.3,0 -0.7,-0.1 -1.1,-0.1 z"
   id="path26" />
		<path
   class="st0"
   d="m 119.7,203.8 c 0.3,0 0.6,-0.1 0.9,-0.1 0.3,0 0.6,0 0.9,0 0.3,0 0.6,0 0.9,0 0.3,0 0.6,0 0.9,0.1 v 9.2 c 0,1 0,1.9 0.1,2.6 0.1,0.7 0.2,1.3 0.4,1.8 0.2,0.5 0.5,0.8 0.9,1 0.4,0.2 0.9,0.3 1.6,0.3 0.6,0 1.2,-0.1 1.6,-0.3 0.4,-0.2 0.7,-0.6 0.9,-1 0.2,-0.4 0.4,-1.1 0.4,-1.8 0.1,-0.7 0.1,-1.6 0.1,-2.6 v -9.2 c 0.3,0 0.6,-0.1 0.9,-0.1 0.3,0 0.6,0 0.9,0 0.3,0 0.6,0 0.9,0 0.3,0 0.6,0 0.9,0.1 v 10 c 0,1.2 -0.1,2.3 -0.3,3.3 -0.2,1 -0.6,1.9 -1.1,2.6 -0.5,0.7 -1.2,1.3 -2.1,1.6 -0.9,0.4 -1.9,0.6 -3.3,0.6 -1.3,0 -2.4,-0.2 -3.3,-0.6 -0.9,-0.4 -1.5,-0.9 -2.1,-1.6 -0.5,-0.7 -0.9,-1.6 -1.1,-2.6 -0.2,-1 -0.3,-2.1 -0.3,-3.3 v -10 z"
   id="path28" />
		<path
   class="st0"
   d="m 136.7,203.8 c 0.5,-0.1 1,-0.1 1.5,-0.1 0.5,0 1,0 1.5,0.1 l 6.9,11.3 v -11.3 c 0.6,-0.1 1.2,-0.1 1.7,-0.1 0.5,0 1,0 1.5,0.1 v 17.8 c -0.5,0.1 -1,0.1 -1.4,0.1 -0.5,0 -1,0 -1.5,-0.1 L 140,210.3 v 11.3 c -0.5,0.1 -1.1,0.1 -1.6,0.1 -0.5,0 -1.1,0 -1.6,-0.1 v -17.8 z"
   id="path30" />
		<path
   class="st0"
   d="m 153.5,203.8 h 10.1 c 0.1,0.5 0.1,1 0.1,1.5 0,0.5 0,1.1 -0.1,1.6 h -6.5 v 4.2 h 5.1 c 0.1,0.5 0.1,1 0.1,1.5 0,0.5 0,1 -0.1,1.6 h -5.1 v 7.4 c -0.6,0.1 -1.2,0.1 -1.8,0.1 -0.6,0 -1.2,0 -1.8,-0.1 z"
   id="path32" />
		<path
   class="st0"
   d="m 169.7,206.9 h -4.4 c -0.1,-0.5 -0.1,-1 -0.1,-1.6 0,-0.5 0,-1 0.1,-1.5 h 12.5 c 0.1,0.5 0.1,1 0.1,1.5 0,0.5 0,1.1 -0.1,1.6 h -4.4 v 14.7 c -0.3,0 -0.6,0.1 -0.9,0.1 -0.3,0 -0.6,0 -0.9,0 -0.3,0 -0.6,0 -0.9,0 -0.3,0 -0.6,0 -1,-0.1 z"
   id="path34" />
		<path
   class="st0"
   d="m 183.4,213.4 c -0.6,-0.2 -1.1,-0.4 -1.5,-0.7 -0.4,-0.3 -0.8,-0.6 -1.1,-0.9 -0.3,-0.4 -0.6,-0.8 -0.7,-1.3 -0.2,-0.5 -0.3,-1.1 -0.3,-1.8 0,-0.8 0.1,-1.6 0.4,-2.2 0.3,-0.6 0.7,-1.2 1.2,-1.6 0.5,-0.4 1.2,-0.8 1.9,-1 0.7,-0.2 1.6,-0.3 2.5,-0.3 0.8,0 1.6,0.1 2.4,0.2 0.8,0.1 1.5,0.4 2.3,0.6 -0.1,1 -0.4,1.9 -0.8,2.8 -0.2,-0.1 -0.5,-0.2 -0.8,-0.3 -0.3,-0.1 -0.5,-0.2 -0.8,-0.2 -0.3,-0.1 -0.6,-0.1 -1,-0.2 -0.4,-0.1 -0.8,-0.1 -1.2,-0.1 -0.3,0 -0.6,0 -0.9,0.1 -0.3,0 -0.5,0.1 -0.8,0.3 -0.2,0.1 -0.4,0.3 -0.6,0.6 -0.1,0.3 -0.2,0.6 -0.2,1 0,0.3 0.1,0.6 0.2,0.8 0.1,0.2 0.3,0.4 0.5,0.6 0.2,0.2 0.4,0.3 0.7,0.4 0.3,0.1 0.5,0.2 0.7,0.3 l 1.5,0.6 c 0.6,0.2 1.2,0.5 1.7,0.8 0.5,0.3 0.9,0.6 1.3,1 0.4,0.4 0.6,0.9 0.8,1.4 0.2,0.6 0.3,1.2 0.3,2 0,0.8 -0.2,1.6 -0.5,2.3 -0.3,0.7 -0.7,1.3 -1.3,1.8 -0.6,0.5 -1.3,0.9 -2.1,1.2 -0.8,0.3 -1.8,0.4 -2.9,0.4 -0.5,0 -1,0 -1.5,0 -0.5,0 -0.8,-0.1 -1.2,-0.2 -0.4,-0.1 -0.8,-0.2 -1.2,-0.3 -0.4,-0.1 -0.8,-0.3 -1.2,-0.4 0,-0.5 0.1,-1 0.3,-1.5 0.1,-0.5 0.3,-1 0.5,-1.6 0.7,0.3 1.3,0.5 2,0.6 0.6,0.1 1.3,0.2 2,0.2 1,0 1.9,-0.2 2.4,-0.6 0.6,-0.4 0.9,-1 0.9,-1.8 0,-0.4 -0.1,-0.7 -0.2,-1 -0.1,-0.3 -0.3,-0.5 -0.5,-0.7 -0.2,-0.2 -0.5,-0.3 -0.8,-0.5 -0.3,-0.1 -0.6,-0.2 -0.9,-0.4 z"
   id="path36" />
		<path
   class="st0"
   d="m 193.9,203.8 c 0.6,-0.1 1.2,-0.1 1.8,-0.1 0.6,0 1.2,0 1.8,0.1 v 14.7 h 6.2 c 0,0.3 0.1,0.5 0.1,0.8 0,0.3 0,0.5 0,0.7 0,0.3 0,0.5 0,0.8 0,0.3 0,0.5 -0.1,0.8 H 194 v -17.8 z"
   id="path38" />
		<path
   class="st0"
   d="m 210.5,203.8 c 0.3,0 0.7,-0.1 1,-0.1 0.3,0 0.7,0 1,0 0.3,0 0.7,0 1,0 0.3,0 0.7,0.1 1,0.1 l 5.6,17.8 c -0.7,0.1 -1.3,0.1 -2,0.1 -0.6,0 -1.2,0 -1.8,-0.1 l -1,-3.6 h -5.9 l -1,3.6 c -0.6,0.1 -1.2,0.1 -1.7,0.1 -0.6,0 -1.2,0 -1.8,-0.1 z m 4,11.3 -2.1,-7.5 -2.2,7.5 z"
   id="path40" />
		<path
   class="st0"
   d="m 222.2,203.8 c 0.5,-0.1 1.1,-0.1 1.8,-0.2 0.7,0 1.6,-0.1 2.6,-0.1 0.9,0 1.8,0.1 2.6,0.2 0.8,0.1 1.5,0.4 2.1,0.8 0.6,0.4 1.1,0.8 1.4,1.4 0.3,0.6 0.5,1.3 0.5,2.2 0,0.5 -0.1,1 -0.2,1.5 -0.2,0.5 -0.4,0.8 -0.6,1.2 -0.2,0.4 -0.6,0.6 -0.9,0.8 -0.3,0.2 -0.7,0.4 -1,0.4 0.4,0 0.8,0.2 1.3,0.3 0.5,0.2 0.9,0.4 1.3,0.8 0.4,0.4 0.7,0.8 1,1.4 0.3,0.6 0.4,1.2 0.4,2 0,1.1 -0.2,2 -0.6,2.6 -0.4,0.7 -0.9,1.2 -1.6,1.6 -0.7,0.4 -1.5,0.7 -2.4,0.8 -0.9,0.1 -1.8,0.2 -2.8,0.2 -0.8,0 -1.5,0 -2.2,-0.1 -0.7,0 -1.6,-0.1 -2.5,-0.2 v -17.6 z m 4.7,7.2 c 0.4,0 0.8,0 1.2,-0.1 0.4,-0.1 0.7,-0.2 0.9,-0.4 0.3,-0.2 0.5,-0.4 0.6,-0.8 0.1,-0.3 0.2,-0.7 0.2,-1.2 0,-0.5 -0.1,-0.9 -0.3,-1.2 -0.2,-0.3 -0.4,-0.5 -0.7,-0.7 -0.3,-0.2 -0.6,-0.3 -0.9,-0.3 -0.3,0 -0.7,-0.1 -1,-0.1 -0.5,0 -0.8,0 -1.2,0.1 v 4.7 z m -1.1,7.9 c 0.2,0 0.5,0.1 0.8,0.1 0.3,0 0.6,0 0.8,0 0.3,0 0.7,0 1.1,-0.1 0.4,-0.1 0.7,-0.2 1.1,-0.4 0.3,-0.2 0.6,-0.5 0.8,-0.8 0.2,-0.3 0.3,-0.8 0.3,-1.3 0,-0.5 -0.1,-0.9 -0.2,-1.3 -0.2,-0.3 -0.4,-0.6 -0.7,-0.8 -0.3,-0.2 -0.7,-0.4 -1.1,-0.4 -0.4,-0.1 -0.9,-0.1 -1.4,-0.1 h -1.5 z"
   id="path42" />
		<path
   class="st0"
   d="m 244.5,221.9 c -1.3,0 -2.5,-0.2 -3.5,-0.7 -1,-0.5 -1.8,-1.1 -2.4,-1.9 -0.6,-0.8 -1.1,-1.8 -1.4,-2.9 -0.3,-1.1 -0.5,-2.3 -0.5,-3.6 0,-1.3 0.2,-2.5 0.5,-3.7 0.3,-1.1 0.8,-2.1 1.4,-2.9 0.6,-0.8 1.4,-1.5 2.4,-1.9 1,-0.4 2.1,-0.7 3.5,-0.7 1.4,0 2.5,0.2 3.5,0.7 1,0.5 1.8,1.1 2.4,1.9 0.6,0.8 1.1,1.8 1.4,2.9 0.3,1.1 0.5,2.4 0.5,3.7 0,1.3 -0.2,2.5 -0.5,3.6 -0.3,1.1 -0.8,2.1 -1.4,2.9 -0.6,0.8 -1.4,1.5 -2.4,1.9 -1,0.5 -2.2,0.7 -3.5,0.7 z m 0,-3 c 2.6,0 3.8,-2 3.8,-6.1 0,-2 -0.3,-3.6 -0.9,-4.6 -0.6,-1 -1.6,-1.5 -2.9,-1.5 -2.6,0 -3.9,2 -3.9,6.1 0,4.1 1.3,6.1 3.9,6.1 z"
   id="path44" />
		<path
   class="st0"
   d="m 255.3,203.8 c 0.7,-0.1 1.4,-0.2 2,-0.2 0.6,-0.1 1.3,-0.1 2.1,-0.1 0.9,0 1.8,0.1 2.7,0.2 0.9,0.2 1.7,0.5 2.4,0.9 0.7,0.4 1.3,1 1.7,1.7 0.4,0.7 0.7,1.6 0.7,2.7 0,0.7 -0.1,1.2 -0.2,1.7 -0.2,0.5 -0.4,0.9 -0.6,1.3 -0.3,0.4 -0.5,0.7 -0.8,1 -0.3,0.3 -0.6,0.5 -0.8,0.7 l -0.4,0.3 4.3,7.5 c -0.3,0 -0.7,0.1 -1,0.1 -0.3,0 -0.7,0 -1.1,0 -0.6,0 -1.2,0 -1.9,-0.1 l -4.7,-8.3 0.6,-0.3 c 0.2,-0.1 0.5,-0.3 0.8,-0.4 0.3,-0.1 0.6,-0.4 1,-0.7 0.3,-0.3 0.6,-0.6 0.8,-1 0.2,-0.4 0.3,-0.8 0.3,-1.4 0,-1 -0.3,-1.8 -0.9,-2.3 -0.6,-0.5 -1.4,-0.7 -2.3,-0.7 -0.4,0 -0.7,0 -1,0.1 v 15 c -0.3,0 -0.6,0.1 -0.9,0.1 -0.3,0 -0.6,0 -0.9,0 -0.3,0 -0.6,0 -0.9,0 -0.3,0 -0.6,0 -1,-0.1 z"
   id="path46" />
	</g>
	<path
   class="st0"
   d="m 65.140633,241.93773 c -6.447055,0 -11.681842,-5.23479 -11.681842,-11.68184 h -2.948012 c 0,8.10014 6.557261,14.6574 14.657406,14.6574 8.100145,0 14.657405,-6.55726 14.657405,-14.6574 h -2.948012 c -0.02755,6.4195 -5.28989,11.68184 -11.736945,11.68184 z"
   id="path50"
   style="stroke-width:0.275515" />
	<path
   class="st0"
   d="m 78.181664,214.28061 -0.87674,-0.29224 c -2.337973,-0.74685 -8.410212,-2.72764 -11.007961,-3.5719 -0.06495,-0.19483 -0.162359,-0.42214 -0.324718,-0.5845 v 0 c -0.06494,-0.065 -0.129888,-0.12988 -0.194831,-0.16236 0,-0.0324 0.03247,-0.065 0.03247,-0.0974 0.32472,-0.74685 0.746854,-1.75348 0.584495,-2.56527 -0.259775,-1.23393 -3.214715,-7.69583 -4.123927,-9.67662 -0.16236,-0.38965 -0.454606,-0.4546 -0.649438,-0.38965 -0.259774,0.0974 -0.389662,0.35718 -0.324719,0.6819 l 0.259776,1.13652 c 0.552021,2.50033 1.818424,8.47515 2.370446,11.0729 -0.129888,0.12989 -0.259775,0.29225 -0.324718,0.48708 -1.363819,0.2273 -2.305504,0.55203 -2.760109,1.00663 -0.909212,0.84427 -5.06561,6.62426 -6.299542,8.37774 l -0.03247,0.0324 c -0.259775,0.35719 -0.16236,0.61696 0,0.77933 0.09742,0.065 0.194831,0.12988 0.292247,0.12988 0.129887,0 0.292246,-0.065 0.422134,-0.19483 0.03247,-0.0325 0.35719,-0.32472 0.844269,-0.77933 1.818423,-1.68853 5.909878,-5.4228 8.020549,-7.33863 l -0.746855,23.83433 h 3.14977 l -0.844268,-23.73693 c 0.487078,0.61696 1.104043,1.39629 1.818424,1.62359 1.136515,0.3572 7.630887,1.00663 10.358523,1.2664 h 0.09742 c 0.03247,0 0.06495,0 0.09742,0 0.35719,0 0.51955,-0.19482 0.552021,-0.38965 0.09742,-0.32473 -0.09741,-0.55203 -0.389662,-0.64945 z"
   id="path52"
   style="stroke-width:0.324718" />
</g>
</svg>
